…
Gather Tags example
===================

    tags2_df <- df %>% select("x1", starts_with("tag"))
    tags2_df

    ## # A tibble: 78,388 x 9
    ##       x1 tag_ai tag_artificial_… tag_big_data tag_data tag_data_science
    ##    <int>  <int>            <int>        <int>    <int>            <int>
    ##  1     2      1                0            0        0                0
    ##  2     5      1                0            0        0                0
    ##  3    11      1                0            0        0                0
    ##  4    12      1                0            0        0                0
    ##  5    17      1                0            0        0                0
    ##  6    18      1                0            0        0                0
    ##  7    28      1                0            0        0                0
    ##  8    30      1                0            0        0                0
    ##  9    33      1                0            0        0                0
    ## 10    34      1                0            0        0                0
    ## # ... with 78,378 more rows, and 3 more variables:
    ## #   tag_data_visualization <int>, tag_deep_learning <int>,
    ## #   tag_machine_learning <int>

    tags2_df %>% gather(tag, value, -x1)

    ## # A tibble: 627,104 x 3
    ##       x1 tag    value
    ##    <int> <chr>  <int>
    ##  1     2 tag_ai     1
    ##  2     5 tag_ai     1
    ##  3    11 tag_ai     1
    ##  4    12 tag_ai     1
    ##  5    17 tag_ai     1
    ##  6    18 tag_ai     1
    ##  7    28 tag_ai     1
    ##  8    30 tag_ai     1
    ##  9    33 tag_ai     1
    ## 10    34 tag_ai     1
    ## # ... with 627,094 more rows

    # tags2_df %>% select(-starts_with("tag"))
    tags2_df %>% gather(tag, value, starts_with("tag"))

    ## # A tibble: 627,104 x 3
    ##       x1 tag    value
    ##    <int> <chr>  <int>
    ##  1     2 tag_ai     1
    ##  2     5 tag_ai     1
    ##  3    11 tag_ai     1
    ##  4    12 tag_ai     1
    ##  5    17 tag_ai     1
    ##  6    18 tag_ai     1
    ##  7    28 tag_ai     1
    ##  8    30 tag_ai     1
    ##  9    33 tag_ai     1
    ## 10    34 tag_ai     1
    ## # ... with 627,094 more rows
…
    tidy_df <- df  %>% 
      unite("date", c("month", "day", "year"), remove = TRUE) %>% 
      mutate(date = mdy(date)) %>% 
      gather(tag, tag_value, starts_with("tag")) %>% 
      mutate(tag = str_remove(tag, "tag_")) %>% 
      filter(tag_value == 1) %>% 
      select(-tag_value)

    tidy_df

    ## # A tibble: 112,994 x 12
    ##       x1 title subtitle image author publication date       reading_time
    ##    <int> <chr> <chr>    <int> <chr>  <chr>       <date>            <int>
    ##  1     2 Onli… Online …     1 Emma … <NA>        2017-08-01            5
    ##  2     5 A.I.… <NA>         0 Sanpa… <NA>        2017-08-01            2
    ##  3    11 Futu… From Ph…     1 Z      <NA>        2017-08-01            3
    ##  4    12 The … A true …     1 Emiko… MILLENNIAL… 2017-08-01            5
    ##  5    17 Os M… mas per…     1 Giova… NEW ORDER   2017-08-01            3
    ##  6    18 The … Origina…     1 Syed … Towards Da… 2017-08-01            6
    ##  7    28 Digi… Health …     1 Anna … <NA>        2017-08-01            5
    ##  8    30 Addr… https:/…     0 The A… <NA>        2017-08-01            0
    ##  9    33 Wir … <NA>         1 Angel… <NA>        2017-08-01            4
    ## 10    34 <NA>  199973       0 The p… <NA>        2017-08-01            3
    ## # ... with 112,984 more rows, and 4 more variables: claps <dbl>,
    ## #   url <chr>, author_url <chr>, tag <chr>
…
